maestro 0.6.0 – data-in-flight
…
}

In this example we’re considering running the orchestrator every 1 hour and we want to see for each hour time slot what pipelines are scheduled to run:

schedule <- build_schedule(quiet = TRUE)

get_slot_usage(
  schedule,
  orch_frequency = "1 hour",
  slot_interval = "hour"
)

# A tibble: 24 × 3
   slot  n_runs pipe_names                      
   <chr>  <int> <chr>                           
 1 00:00      3 hourly, every_3_hours, some_days
 2 01:00      1 hourly                          
 3 02:00      1 hourly                          
 4 03:00      2 hourly, every_3_hours           
 5 04:00      2 hourly, weekly                  
 6 05:00      1 hourly                          
 7 06:00      2 hourly, every_3_hours           
 8 07:00      1 hourly                          
 9 08:00      1 hourly                          
10 09:00      2 hourly, every_3_hours           
# ℹ 14 more rows

We can see that things are fairly evenly distributed aside from the hour 00 which has 3 pipelines scheduled. There are also many times where only 1 pipeline runs, so if we have a pipeline that runs daily we’d want to schedule it at a less busy time.

We can change the slot_interval argument to any other valid unit of time to get a different picture.

get_slot_usage(
  schedule,
  orch_frequency = "1 hour",
  slot_interval = "day"
)

# A tibble: 31 × 3
   slot  n_runs pipe_names                                     
   <chr>  <int> <chr>                                          
 1 01         4 hourly, daily, every_3_hours, weekly           
 2 02         4 hourly, daily, every_3_hours, weekly           
 3 03         4 hourly, daily, every_3_hours, weekly           
 4 04         5 hourly, daily, every_3_hours, weekly, some_days
 5 05         4 hourly, daily, every_3_hours, weekly           
 6 06         4 hourly, daily, every_3_hours, weekly           
 7 07         4 hourly, daily, every_3_hours, weekly           
 8 08         4 hourly, daily, every_3_hours, weekly           
 9 09         5 hourly, daily, every_3_hours, weekly, some_days
10 10         4 hourly, daily, every_3_hours, weekly           
# ℹ 21 more rows
…
